%YAML 1.1
%TAG !u! tag:unity3d.com,2011:
--- !u!114 &11400000
MonoBehaviour:
  m_ObjectHideFlags: 0
  m_PrefabParentObject: {fileID: 0}
  m_PrefabInternal: {fileID: 0}
  m_GameObject: {fileID: 0}
  m_Enabled: 1
  m_EditorHideFlags: 0
  m_Script: {fileID: 11500000, guid: d77f76fefc0e73d4184cf86fd1488e0f, type: 3}
  m_Name: FroggerMonsterJumping
  m_EditorClassIdentifier: 
  fps: 8
  frames:
  - {fileID: 21300000, guid: f5b24910012a9b14ebe56f47b26e932d, type: 3}
  - {fileID: 21300000, guid: d4846371df23e8441a7260953f13af93, type: 3}
  - {fileID: 21300000, guid: f5b24910012a9b14ebe56f47b26e932d, type: 3}
  framesDuration: 010000000600000001000000
