%YAML 1.1
%TAG !u! tag:unity3d.com,2011:
--- !u!114 &11400000
MonoBehaviour:
  m_ObjectHideFlags: 0
  m_PrefabParentObject: {fileID: 0}
  m_PrefabInternal: {fileID: 0}
  m_GameObject: {fileID: 0}
  m_Enabled: 1
  m_EditorHideFlags: 0
  m_Script: {fileID: 11500000, guid: d77f76fefc0e73d4184cf86fd1488e0f, type: 3}
  m_Name: DwarfRun
  m_EditorClassIdentifier: 
  fps: 10
  frames:
  - {fileID: 21300000, guid: 734a8ad7e303f4abb9971f92cf01f010, type: 3}
  - {fileID: 21300000, guid: 38f3494c84d29458a9de70d703d807d3, type: 3}
  framesDuration: 0100000001000000
